…
- [x] Fact Check
- [ ] Create claims
- [ ] Get created claims
- [ ] Delete created claims
- [ ] Edit claims

## Example


```r
library(factcheck)

# Claims on Trump in English that are maximum 10 days old
fact_check("Trump", lang = "en-US", days_old = 10)
#> # A tibble: 23 x 4
#>    text                             claimant     claimDate     claimReview 
#>    <chr>                            <chr>        <chr>         <list>      
#>  1 "A meme claims that a photo of … Viral image  2019-06-17T0… <named list…
#>  2 "\"Well, I got 52% (of women vo… Donald Trump 2019-06-16T0… <named list…
#>  3 Allegedly shows a rally held by… Viral Image  2019-05-27T0… <named list…
#>  4 "Quotes Queen Elizabeth II as s… Facebook po… 2019-06-07T0… <named list…
#>  5 Nobody’s been tougher on Russia… Donald Trump 2019-06-18T0… <named list…
#>  6 “Nicole Kidman Says: Trump Is T… Kh Stars     2018-06-12T0… <named list…
#>  7 Trump administration bans stude… Multiple so… 2019-06-14T0… <named list…
#>  8 "Michael Bloomberg said, \"I ha… Viral image  2019-06-06T0… <named list…
#>  9 "Says a photo taken in England … Viral Image  2019-06-04T0… <named list…
#> 10 Claims that a recently discover… Viral Image  2019-05-08T0… <named list…
#> # … with 13 more rows
…
